…
This is a basic example which shows you how to solve a common problem:

``` r
library(ubigeosperu)
library(dplyr)

## ubigeosperu contains a single dataframe object containing the peruvian ubigeos codes.

## This are the dimentions of the dataframe
dim(ubigeos)
#> [1] 1876   18

## The ubigeos dataset is a tibble
ubigeos
#> # A tibble: 1,876 x 18
#>    cod_dep_inei desc_dep_inei cod_prov_inei desc_prov_inei cod_ubigeo_inei
#>    <chr>        <chr>         <chr>         <chr>          <chr>          
#>  1 01           AMAZONAS      0101          CHACHAPOYAS    010101         
#>  2 01           AMAZONAS      0101          CHACHAPOYAS    010102         
#>  3 01           AMAZONAS      0101          CHACHAPOYAS    010103         
#>  4 01           AMAZONAS      0101          CHACHAPOYAS    010104         
#>  5 01           AMAZONAS      0101          CHACHAPOYAS    010105         
#>  6 01           AMAZONAS      0101          CHACHAPOYAS    010106         
#>  7 01           AMAZONAS      0101          CHACHAPOYAS    010107         
#>  8 01           AMAZONAS      0101          CHACHAPOYAS    010108         
#>  9 01           AMAZONAS      0101          CHACHAPOYAS    010109         
#> 10 01           AMAZONAS      0101          CHACHAPOYAS    010110         
#> # … with 1,866 more rows, and 13 more variables: desc_ubigeo_inei <chr>,
#> #   cod_dep_reniec <chr>, desc_dep_reniec <chr>, cod_prov_reniec <chr>,
#> #   desc_prov_reniec <chr>, cod_ubigeo_reniec <chr>, desc_ubigeo_reniec <chr>,
#> #   cod_dep_sunat <chr>, desc_dep_sunat <chr>, cod_prov_sunat <chr>,
#> #   desc_prov_sunat <chr>, cod_ubigeo_sunat <chr>, desc_ubigeo_sunat <chr>
…
